------------------------------
151.26	jr
300	je
300.63	hdd
301.31	jee
301.33	hr
10002.2	he
------------------------------
------------------------------
150.63	fdr
300.93	fr
301.04	gee
301.23	ge
10000.9	fe
10001.3	fee
------------------------------
100	fek
150.64	ferrell
151.54	fell
151.6	fel
151.69	ferj
151.98	feel
------------------------------
------------------------------
150.62	yip
151.32	yup
152.16	up
301.65	yi
301.76	yu
10001.5	yo
------------------------------
76.05	ui
101.55	ypi
101.65	yi
101.74	yupi
101.76	yu
152.41	you
------------------------------
76.05	ui
101.55	ypi
101.65	yi
101.74	yupi
101.76	yu
152.41	you
------------------------------
------------------------------
150.62	yip
151.32	yup
152.16	up
301.65	yi
301.76	yu
10001.5	yo
------------------------------
76.05	ui
101.55	ypi
101.65	yi
101.74	yupi
101.76	yu
152.41	you
------------------------------
76.05	ui
101.55	ypi
101.65	yi
101.74	yupi
101.76	yu
152.41	you
------------------------------
------------------------------
150.93	fr
300.63	fdr
300.94	fe
301.32	fee
301.34	fre
301.88	free
------------------------------
100	fek
150.64	ferrell
151.54	fell
151.6	fel
151.69	ferj
151.98	feel
------------------------------
100	fek
150.64	ferrell
151.54	fell
151.6	fel
151.69	ferj
151.98	feel
------------------------------
------------------------------
150.65	tyg
150.73	rj
300	tb
300.67	tty
300.77	tt
301.65	tu
------------------------------
150.82	rhee
151.32	tuuhe
151.62	rhe
301.15	thee
301.71	three
302.55	the
------------------------------
150.82	rhee
151.32	tuuhe
151.62	rhe
301.15	thee
301.71	three
302.55	the
------------------------------
------------------------------
150.58	dss
300.83	sd
301.44	da
10000.6	saa
10000.7	ssa
10001.6	sa
------------------------------
301.44	sm
301.51	san
301.56	sann
301.62	saan
10001.4	sam
10001.7	samm
------------------------------
76.04	dane
101.18	sane
101.41	saavnee
151	sabne
151.39	saamne
151.6	samne
------------------------------
------------------------------
151.67	war
152.01	way
300.92	watt
301.44	wat
301.48	east
301.51	west
------------------------------
151.67	war
152.01	way
300.92	watt
301.44	wat
301.48	east
301.51	west
------------------------------
------------------------------
150.62	yip
151.32	yup
152.16	up
301.65	yi
301.76	yu
10001.5	yo
------------------------------
101.74	yupi
151.35	yot
151.46	yo
151.65	yi
151.76	yu
302.41	you
------------------------------
101.74	yupi
151.35	yot
151.46	yo
151.65	yi
151.76	yu
302.41	you
------------------------------
------------------------------
300.55	hss
300.66	hsa
301.6	jaa
301.67	ja
10001.6	ha
10001.8	haa
------------------------------
100.79	hassan
101.36	jasn
101.39	hav
101.52	jaab
101.81	jab
151.53	hasn
------------------------------
76.55	jabe
76.61	jaave
101.27	hasne
101.34	jasbe
101.7	haaavee
102.28	have
------------------------------
76.55	jabe
76.61	jaave
101.27	hasne
101.34	jasbe
101.7	haaavee
102.28	have
------------------------------
------------------------------
300.55	hss
300.66	hsa
301.6	jaa
301.67	ja
10001.6	ha
10001.8	haa
------------------------------
300.55	hss
300.66	hsa
301.6	jaa
301.67	ja
10001.6	ha
10001.8	haa
------------------------------
100.55	hss
100.62	hhs
151.06	hadd
151.5	hass
152.06	has
152.12	had
------------------------------
100.55	hss
100.62	hhs
151.06	hadd
151.5	hass
152.06	has
152.12	had
------------------------------
------------------------------
150.83	twa
151.53	tea
151.76	res
300.08	rea
300.52	rwa
10000.1	rewa
------------------------------
75.62	teak
100.81	teal
101.38	rask
101.42	rasal
151.59	rawal
151.85	real
------------------------------
51.32	teski
51.37	tesli
51.81	rakt
61.21	rally
75.37	rashly
77.06	really
------------------------------
51.32	teski
51.37	tesli
51.81	rakt
61.21	rally
75.37	rashly
77.06	really
------------------------------
------------------------------
300.23	bsa
300.54	bbs
301.75	vaa
302.04	va
10001.2	baa
10001.7	ba
------------------------------
100.53	bsd
101.32	basaad
101.35	baf
101.86	baad
101.96	bad
151.35	bsas
------------------------------
100.53	bsd
101.32	basaad
101.35	baf
101.86	baad
101.96	bad
151.35	bsas
------------------------------
------------------------------
150.88	av
151.41	azm
300.51	asn
300.58	acm
300.66	assn
301.51	abn
------------------------------
75.27	abbr
76.31	ave
76.48	abr
101.46	abbe
101.52	abe
151.1	acne
------------------------------
75.27	abbr
76.31	ave
76.48	abr
101.46	abbe
101.52	abe
151.1	acne
------------------------------
------------------------------
100.66	tugs
101.38	ruha
101.43	tujhaa
151.16	thaa
151.32	thya
152.05	tha
------------------------------
50.5	thar
50.66	thag
51.44	thaar
51.48	tuhaar
61.51	thaat
62.37	that
------------------------------
------------------------------
300.55	hss
300.66	hsa
301.6	jaa
301.67	ja
10001.6	ha
10001.8	haa
------------------------------
150.55	hss
150.62	hhs
300.66	hsa
300.85	haas
301.5	hass
302.06	has
------------------------------
150.55	hss
150.62	hhs
300.66	hsa
300.85	haas
301.5	hass
302.06	has
------------------------------
------------------------------
300.59	lw
300.74	kke
300.93	lt
302.12	ke
10001.4	lee
10001.8	le
------------------------------
100.79	kef
100.88	lewd
150.6	leds
150.73	leeds
151.43	leef
------------------------------
61.55	kedy
75.48	leggy
75.96	lefty
75.97	lest
76.43	leef
101.81	left
------------------------------
61.55	kedy
75.48	leggy
75.96	lefty
75.97	lest
76.43	leef
101.81	left
------------------------------
------------------------------
150.85	ax
150.88	av
300	sb
300.55	sdc
10000.5	ssc
10000.6	scc
------------------------------
100.73	acs
101.2	ava
101.39	aaza
150.54	acca
150.57	scs
151.05	sxsw
------------------------------
61.37	azar
75.14	svar
75.44	scad
75.87	scat
76.05	sxsw
101.24	scar
------------------------------
60.56	scarfs
61.01	scarred
61.04	scarf
61.56	scared
76.15	scars
76.31	scares
------------------------------
60.56	scarfs
61.01	scarred
61.04	scarf
61.56	scared
76.15	scars
76.31	scares
------------------------------
------------------------------
300.85	om
301.18	inn
301.33	oom
301.41	ob
10001.7	oon
10002.3	on
------------------------------
300.85	om
301.18	inn
301.33	oom
301.41	ob
10001.7	oon
10002.3	on
------------------------------
------------------------------
151.19	nu
300.74	ny
301.26	mt
301.47	mr
301.63	mu
10002.3	my
------------------------------
151.19	nu
300.74	ny
301.26	mt
301.47	mr
301.63	mu
10002.3	my
------------------------------
------------------------------
75.51	faff
76.06	fax
76.1	fad
100.54	fac
100.66	frsc
101.63	fasaad
------------------------------
75.51	faff
76.06	fax
76.1	fad
100.54	fac
100.66	frsc
101.63	fasaad
------------------------------
60.7	faze
61.19	fave
61.23	grace
76.48	fasee
76.65	fase
76.77	face
------------------------------
60.7	faze
61.19	fave
61.23	grace
76.48	fasee
76.65	fase
76.77	face
------------------------------
------------------------------
300.72	ssn
301.35	sn
10001.2	ann
10001.4	aann
10001.8	aan
10002.1	an
------------------------------
75.6	sbs
101.11	abs
101.4	ans
151.46	abd
151.49	aand
152.47	and
------------------------------
75.6	sbs
101.11	abs
101.4	ans
151.46	abd
151.49	aand
152.47	and
------------------------------
------------------------------
300.97	mms
301.26	ms
301.65	naa
301.8	na
10001.6	ma
10001.7	maa
------------------------------
151.01	maj
151.06	mash
151.31	mask
151.32	maash
151.38	maaj
151.4	maaaj
------------------------------
76.36	najee
76.5	nahee
100.15	nashe
101.37	maje
101.47	madhe
101.54	maahe
------------------------------
76.36	najee
76.5	nahee
100.15	nashe
101.37	maje
101.47	madhe
101.54	maahe
------------------------------
76.12	mashed
76.37	maahre
76.49	mahes
76.52	madhes
76.54	masjeed
100.73	mashes
------------------------------
------------------------------
300.8	mre
300.81	mw
301.48	nee
301.96	ne
10000.2	mme
10002.3	me
------------------------------
------------------------------
301.45	lii
301.47	li
301.51	koo
10001.2	loo
10001.4	llo
10001.5	lo
------------------------------
150	lol
150.84	loll
151.45	looj
301.13	lok
301.57	lik
301.9	look
------------------------------
150	lol
150.84	loll
151.45	looj
301.13	lok
301.57	lik
301.9	look
------------------------------
------------------------------
301.49	il
301.54	oj
301.55	ill
301.68	ok
10001.4	ool
10001.5	ol
------------------------------
100.51	ils
100.68	ills
101.03	oils
151.16	ole
151.36	oks
301.89	old
------------------------------
100.51	ils
100.68	ills
101.03	oils
151.16	ole
151.36	oks
301.89	old
------------------------------
------------------------------
150.62	yip
151.65	yi
152.16	up
301.32	yup
301.46	yo
301.76	yu
------------------------------
76.05	ui
76.33	yti
76.65	yi
76.76	yu
101.74	yupi
102.41	you
------------------------------
76.05	ui
76.33	yti
76.65	yi
76.76	yu
101.74	yupi
102.41	you
------------------------------
------------------------------
300.55	hss
300.62	hhs
300.66	hsa
301.5	gaa
10001.6	ha
10001.8	haa
------------------------------
300.55	hss
300.62	hhs
300.66	hsa
301.5	gaa
10001.6	ha
10001.8	haa
------------------------------
100.79	hassan
101.39	hav
101.49	hann
101.57	han
101.71	hasan
151.53	hasn
------------------------------
60.8	gabe
61.44	gaave
61.69	gave
75.74	heave
76.7	haaavee
77.28	have
------------------------------
------------------------------
76.33	fuli
76.4	dhoi
76.5	fulki
76.55	fli
101.37	fikki
101.49	fiki
------------------------------
61.34	flim
61.38	dhin
75.76	djinn
76.33	dikin
76.4	diloun
76.45	flin
------------------------------
50.89	flopping
50.99	fling
51	dhund
51.5	dhoond
61.89	find
76.79	found
------------------------------
50.89	flopping
50.99	fling
51	dhund
51.5	dhoond
61.89	find
76.79	found
------------------------------
------------------------------
150.65	tyg
300.73	rj
------------------------------
151.21	thu
151.54	tuhi
151.65	tho
301.35	thii
301.99	thi
------------------------------
151.21	thu
151.54	tuhi
151.65	tho
301.35	thii
301.99	thi
------------------------------
100.27	thous
101.05	thug
101.39	thus
101.43	thod
150.82	thud
152.27	this
------------------------------
100.82	thud
101.32	thiyya
101.47	thia
150.27	thous
151.39	thus
152.27	this
------------------------------
------------------------------
151.18	brew
151.25	bee
301.33	ner
301.48	nee
301.96	ne
10002	new
------------------------------
151.18	brew
151.25	bee
301.33	ner
301.48	nee
301.96	ne
10002	new
------------------------------
------------------------------
300.5	lda
300.62	lsa
301.97	ka
302.27	kaa
10001.5	laa
10001.6	la
------------------------------
300.5	lda
300.62	lsa
301.97	ka
302.27	kaa
10001.5	laa
10001.6	la
------------------------------
101.2	laser
101.46	lader
150.42	lase
150.73	lade
151.46	lafde
151.58	laade
------------------------------
101.2	laser
101.46	lader
150.42	lase
150.73	lade
151.46	lafde
151.58	laade
------------------------------
60.83	lswr
75.51	lafferty
76.53	kaser
101.19	ladder
101.2	laser
101.46	lader
------------------------------
60.83	lswr
75.51	lafferty
76.53	kaser
101.19	ladder
101.2	laser
101.46	lader
------------------------------
------------------------------
150.73	rj
300	tb
300.67	tty
301.68	tv
------------------------------
100.47	tyree
100.82	rhee
101.62	rhe
151.15	thee
151.71	three
152.55	the
------------------------------
100.47	tyree
100.82	rhee
101.62	rhe
151.15	thee
151.71	three
152.55	the
------------------------------
100.47	tyree
100.82	rhee
101.62	rhe
151.15	thee
151.71	three
152.55	the
------------------------------
101.15	thee
101.48	thet
101.71	three
102.2	they
102.55	the
151.4	ther
------------------------------
75.07	rhea
75.85	theresa
76.7	thes
100.74	theta
100.75	thea
151.54	thera
------------------------------
44.3271	tesi
50.5	thrall
50.84	theo
51.41	thado
51.46	teso
51.48	tesai
------------------------------
44.3171	teso
50.5	thrall
51.27	trap
51.4	thaaap
51.59	thap
51.65	thapp
------------------------------
34.7433	thaor
38.31	teapot
38.84	thakor
38.85	thakit
38.88	therapy
38.91	trakit
------------------------------
34.7433	thaor
38.31	teapot
38.84	thakor
38.85	thakit
38.88	therapy
38.91	trakit
------------------------------
------------------------------
300.65	fp
301.23	goo
301.37	fii
301.44	fio
302.05	go
10001	foo
------------------------------
300.65	fp
301.23	goo
301.37	fii
301.44	fio
302.05	go
10001	foo
------------------------------
101.1	firr
101.58	git
101.88	fir
151.37	foir
151.5	foot
151.61	fit
------------------------------
------------------------------
100.6	abm
101.85	ab
150.58	acm
150.88	av
151.51	abn
151.53	aav
------------------------------
60.27	abbr
61.48	abr
76.31	ave
76.46	abbe
76.52	abe
101.1	acne
------------------------------
------------------------------
150.85	ax
150.88	av
300	sb
300.55	sdc
10000.5	ssc
10000.6	scc
------------------------------
100.73	acs
101.05	sxsw
101.2	ava
101.39	aaza
150.54	acca
150.57	scs
------------------------------
75.14	svar
75.44	scad
75.87	scat
76.05	sxsw
76.93	avasar
101.24	scar
------------------------------
60.57	scs
61.01	scarred
61.56	scared
76.04	scarf
76.31	scares
101.15	scars
------------------------------
60.57	scs
61.01	scarred
61.56	scared
76.04	scarf
76.31	scares
101.15	scars
------------------------------
------------------------------
150.65	tyg
151.76	yu
300.67	tty
301.65	tu
------------------------------
100.66	tugs
100.7	yuga
101.01	thugs
151.16	thaa
151.32	thya
152.05	tha
------------------------------
60.5	thar
61.44	thaar
61.6	thaade
76.51	thaat
77.37	that
------------------------------
------------------------------
151.74	uun
301.18	inn
301.3	um
301.39	umm
302.39	in
10001.5	im
------------------------------
151.74	uun
301.18	inn
301.3	um
301.39	umm
302.39	in
10001.5	im
------------------------------
------------------------------
75.71	glom
75.8	gloom
101.34	flim
150.97	finn
151.02	fin
151.45	flin
------------------------------
75.71	glom
75.8	gloom
101.34	flim
150.97	finn
151.02	fin
151.45	flin
------------------------------
75.66	gluing
76.19	flipping
100.99	fling
101.33	fing
101.35	gloing
102.01	going
------------------------------
75.66	gluing
76.19	flipping
100.99	fling
101.33	fing
101.35	gloing
102.01	going
------------------------------
------------------------------
301.46	yo
301.7	ti
301.77	tyo
301.85	tii
10002	too
10002.5	to
------------------------------
301.46	yo
301.7	ti
301.77	tyo
301.85	tii
10002	too
10002.5	to
------------------------------
------------------------------
150.65	fp
301.01	foo
301.47	dii
301.69	di
10001.2	doo
10002.2	do
------------------------------
150.65	fp
301.01	foo
301.47	dii
301.69	di
10001.2	doo
10002.2	do
------------------------------
------------------------------
300.85	om
301.18	inn
301.33	oom
301.41	ob
10001.7	oon
10002.3	on
------------------------------
300.85	om
301.18	inn
301.33	oom
301.41	ob
10001.7	oon
10002.3	on
------------------------------
60.73	ibge
60.79	inge
61.48	ive
76.33	ove
76.35	oobe
101.87	once
------------------------------
60.73	ibge
60.79	inge
61.48	ive
76.33	ove
76.35	oobe
101.87	once
------------------------------
------------------------------
151.32	yup
301.65	yi
301.76	yu
302.02	too
302.51	to
10001.5	yo
------------------------------
151.55	ypi
151.65	yi
301.35	yot
301.46	yo
301.76	yu
10002.4	you
------------------------------
151.55	ypi
151.65	yi
301.35	yot
301.46	yo
301.76	yu
10002.4	you
------------------------------
------------------------------
150.63	fdr
300.93	fr
301.04	gee
301.23	ge
10000.9	fe
10001.3	fee
------------------------------
100	fek
150.64	ferrell
151.54	fell
151.6	fel
151.69	ferj
151.98	feel
------------------------------
100	fek
150.64	ferrell
151.54	fell
151.6	fel
151.69	ferj
151.98	feel
------------------------------
------------------------------
150.58	dss
300.83	sd
301.44	da
10000.6	saa
10000.7	ssa
10001.6	sa
------------------------------
150.58	dss
300.83	sd
301.44	da
10000.6	saa
10000.7	ssa
10001.6	sa
------------------------------
100.65	ssh
101.1	sh
150.71	sg
300.75	sash
301.06	sag
301.59	saag
------------------------------
100.65	ssh
101.1	sh
150.71	sg
300.75	sash
301.06	sag
301.59	saag
------------------------------
75.71	sfr
100.56	sadhe
101.33	saadhee
150.97	sage
151.6	safe
151.89	saafe
------------------------------
75.71	sfr
100.56	sadhe
101.33	saadhee
150.97	sage
151.6	safe
151.89	saafe
------------------------------
------------------------------
300.55	ssp
300.85	sssi
301.42	sioo
10000.5	sso
10001.5	soo
10002.2	so
------------------------------
151.26	sin
151.35	siin
151.63	son
151.68	sikkon
151.73	soon
301.34	sion
------------------------------
101.33	sukne
101.5	silne
151.37	sikne
151.43	sokhne
151.5	sikhne
151.6	sookhne
------------------------------
101.33	sukne
101.5	silne
151.37	sikne
151.43	sokhne
151.5	sikhne
151.6	sookhne
------------------------------
------------------------------
300.51	mmp
300.63	mpp
300.95	mp
302.1	no
10001	moo
10001.7	mo
------------------------------
100.62	minn
101.4	muon
101.49	muin
101.58	moun
101.65	min
151.47	moin
------------------------------
60.8	mime
61.29	nine
61.4	mive
75.51	minge
75.76	mince
76.7	mine
------------------------------
50.61	moonset
60.48	minder
60.64	mooney
60.74	mindy
61.32	molibdet
61.5	mundey
------------------------------
50.61	moonset
60.48	minder
60.64	mooney
60.74	mindy
61.32	molibdet
61.5	mundey
------------------------------
------------------------------
300.67	oof
300.93	ig
301.99	off
302.42	of
10001.5	iff
10002.2	if
------------------------------
------------------------------
150.62	yip
151.32	yup
152.16	up
301.65	yi
301.76	yu
10001.5	yo
------------------------------
101.05	ui
101.74	yupi
151.46	yo
151.65	yi
151.76	yu
302.41	you
------------------------------
101.05	ui
101.74	yupi
151.46	yo
151.65	yi
151.76	yu
302.41	you
------------------------------
------------------------------
300.51	sso
301.47	soo
301.5	dio
302.22	so
10001.2	doo
10002.2	do
------------------------------
300.51	sso
301.47	soo
301.5	dio
302.22	so
10001.2	doo
10002.2	do
------------------------------
300.5	don
301.14	doon
301.34	sion
301.43	dinn
301.84	din
10000.8	dion
------------------------------
300.5	don
301.14	doon
301.34	sion
301.43	dinn
301.84	din
10000.8	dion
------------------------------
100.81	donny
100.82	dupont
101.33	sint
150.43	dionne
151.57	dont
------------------------------
------------------------------
301.19	loo
301.5	lu
301.51	loi
301.53	lo
10001.5	lii
10001.5	li
------------------------------
300.91	luk
301.13	lok
301.38	lil
301.61	lij
301.9	look
10001.6	lik
------------------------------
151.38	lulle
151.45	lule
301.25	luke
301.52	loke
301.53	lije
10002.2	like
------------------------------
151.38	lulle
151.45	lule
301.25	luke
301.52	loke
301.53	lije
10002.2	like
------------------------------
------------------------------
150.62	yip
151.32	yup
152.16	up
301.65	yi
301.76	yu
10001.5	yo
------------------------------
151.05	ui
300.62	yip
301.32	yup
301.46	yo
301.65	yi
302.16	up
------------------------------
75.96	upi
101.55	ypi
101.74	yupi
150.71	yoko
151	yolo
302.41	you
------------------------------
75.96	upi
101.55	ypi
101.74	yupi
151	yolo
151.35	yot
302.41	you
------------------------------
100.65	yippee
150.71	yoke
151.34	yur
151.35	yot
301.62	yor
302.22	your
------------------------------
100.65	yippee
150.71	yoke
151.34	yur
151.35	yot
301.62	yor
302.22	your
------------------------------
------------------------------
150.58	dss
151.05	fas
300.67	ffa
301.04	fa
10001	fsa
------------------------------
75.94	dav
76.67	daav
100.58	dac
100.6	dsc
101.06	fax
150.54	fac
------------------------------
60.79	daze
75.55	dace
75.7	faze
76.19	fave
76.35	dasave
101.77	face
------------------------------
60.79	daze
75.55	dace
75.7	faze
76.19	fave
76.35	dasave
101.77	face
------------------------------
------------------------------
150.65	tyg
150.73	rj
300.67	tty
------------------------------
150.65	tyg
150.73	rj
300	tb
300.67	tty
------------------------------
75.5	tfs
100.82	rhee
101.62	rhe
151.15	thee
151.71	three
152.55	the
------------------------------
76.15	thee
76.48	thet
101.4	ther
101.46	threw
101.71	three
102.12	there
------------------------------
76.15	thee
76.48	thet
101.4	ther
101.46	threw
101.71	three
102.12	there
------------------------------
76.15	thee
76.48	thet
101.4	ther
101.46	threw
101.71	three
102.12	there
------------------------------
76.15	thee
76.48	thet
101.4	ther
101.46	threw
101.71	three
102.12	there
------------------------------
76.15	thee
76.48	thet
101.4	ther
101.46	threw
101.71	three
102.12	there
------------------------------
50.75	thea
61.54	thera
61.7	thes
75.8	threes
75.85	theresa
76.38	thress
------------------------------
50.75	thea
61.54	thera
61.7	thes
75.8	threes
75.85	theresa
76.38	thress
------------------------------
------------------------------
300.58	ius
300.74	oos
300.94	ids
301.66	os
10001.3	iss
10002.4	is
------------------------------
300.58	ius
300.74	oos
300.94	ids
301.66	os
10001.3	iss
10002.4	is
------------------------------
------------------------------
300.67	ssl
300.74	sl
301.52	asl
10001.7	aal
10001.7	al
10002.2	all
------------------------------
300.67	ssl
300.74	sl
301.52	asl
10001.7	aal
10001.7	al
10002.2	all
------------------------------
100.89	slew
150.5	aake
150.71	alee
151.3	ale
151.34	ake
151.6	aale
------------------------------
100.8	ales
151.17	alla
151.4	skla
151.43	alaa
151.67	allaa
301.35	alwa
------------------------------
100.8	ales
151.17	alla
151.4	skla
151.43	alaa
151.67	allaa
301.35	alwa
------------------------------
76.42	alesady
100.44	allay
101.35	alwaar
101.41	alrady
101.44	alwar
151.56	aalasy
------------------------------
60.57	slats
61.33	akarta
61.35	aalata
61.39	alata
61.51	akatya
76.96	always
------------------------------
60.57	slats
61.33	akarta
61.35	aalata
61.39	alata
61.51	akatya
76.96	always
------------------------------
------------------------------
300.6	sy
300.85	sssi
301.33	syu
301.47	sii
301.53	si
10001.6	su
------------------------------
100.6	sy
101.38	sute
101.43	sutte
101.52	sutt
101.78	suut
151.17	sur
------------------------------
100.6	sy
101.38	sute
101.43	sutte
101.52	sutt
101.78	suut
151.17	sur
------------------------------
50.09	ayeh
60.11	sutej
61.08	suresh
61.56	stith
76.1	surf
76.34	sruth
------------------------------
42.8571	aayege
50.43	surged
50.5	surfs
50.63	surges
50.91	surfer
60.99	surge
------------------------------
42.8571	aayege
50.43	surged
50.5	surfs
50.63	surges
50.91	surfer
60.99	surge
------------------------------
42.8571	aayege
50.43	surged
50.5	surfs
50.63	surges
50.91	surfer
60.99	surge
------------------------------
33.3933	surshri
34.9533	suthri
38.12	stuffer
38.85	suffer
43.7671	surfer
51.43	surgery
------------------------------
------------------------------
300.6	ott
300.89	oor
301.32	oote
301.47	ot
301.59	oot
302.25	or
------------------------------
------------------------------
300.5	lda
300.62	lsa
301.97	ka
302.27	kaa
10001.5	laa
10001.6	la
------------------------------
150.5	lda
150.57	lsd
150.85	lds
300.62	lsa
300.8	lass
301.25	las
------------------------------
101.2	laser
101.46	lader
150.42	lase
150.73	lade
151.46	lafde
151.58	laade
------------------------------
75.83	lswr
100.42	lase
100.73	lade
151.19	ladder
151.2	laser
151.46	lader
------------------------------
------------------------------
150.59	tress
150.83	twa
151.38	trees
151.53	tres
300.1	rewa
300.62	trews
------------------------------
100.67	teat
101.12	tease
101.59	test
101.71	rest
151.52	treat
151.71	trast
------------------------------
75.67	teat
76.59	test
100.74	testy
101.52	treat
101.71	trast
150.96	treaty
------------------------------
50.13	ratul
51.37	tyatun
60.69	rearm
60.85	tatum
61.38	tredem
61.51	rashm
------------------------------
50.73	retune
51.32	resume
51.43	testle
60.75	restyle
60.78	reassume
60.93	trestle
------------------------------
30.77	reuben
33.3833	ratnesh
34.6833	rajmen
34.7933	rathen
34.9433	tarkeeb
38.99	rasmen
------------------------------
30.3	resurgent
30.54	rayner
31.33	ratner
38.85	resturent
39.09	treetment
44.2571	treatment
------------------------------
30.3	resurgent
30.54	rayner
31.33	ratner
38.85	resturent
39.09	treetment
44.2571	treatment
------------------------------
------------------------------
300.08	rea
300.59	tress
301.38	trees
301.41	tra
301.53	tres
------------------------------
75.46	tesh
76.07	rash
76.26	rag
76.37	resh
76.49	raash
101.45	trash
------------------------------
75.46	tesh
76.07	rash
76.26	rag
76.37	resh
76.49	raash
101.45	trash
------------------------------
75.46	tesh
76.07	rash
76.26	rag
76.37	resh
76.49	raash
101.45	trash
------------------------------
75.46	tesh
76.07	rash
76.26	rag
76.37	resh
76.49	raash
101.45	trash
------------------------------
------------------------------
300.08	rea
300.59	tress
301.38	trees
301.41	tra
301.53	tres
------------------------------
100.67	teat
101.59	test
101.71	rest
150.27	resat
151.52	treat
151.71	trast
------------------------------
76.59	test
76.71	rest
100.74	testy
101.52	treat
101.71	trast
150.96	treaty
------------------------------
76.59	test
76.71	rest
100.74	testy
101.52	treat
101.71	trast
150.96	treaty
------------------------------
43.3571	tarun
50.13	ratul
51.37	tyatun
60.69	rearm
60.85	tatum
61.51	rashm
------------------------------
43.3571	tarun
50.13	ratul
51.37	tyatun
60.69	rearm
60.85	tatum
61.51	rashm
------------------------------
60.85	resettle
61.32	resume
61.43	testle
75.75	restyle
75.78	reassume
75.93	trestle
------------------------------
44.2071	rajmen
44.2171	tayen
44.3171	rathen
44.5271	raaten
51.39	raasten
51.49	rasmen
------------------------------
44.2071	rajmen
44.2171	tayen
44.3171	rathen
44.5271	raaten
51.39	raasten
51.49	rasmen
------------------------------
37.8	resurgent
38	reagent
38.86	tashkent
51.35	resturent
51.59	treetment
61.4	treatment
------------------------------
30.51	testbeds
33.7033	reagents
33.8333	restlessness
33.9733	resents
34.1533	returners
51.08	treatments
------------------------------
30.51	testbeds
33.7033	reagents
33.8333	restlessness
33.9733	resents
34.1533	returners
51.08	treatments
------------------------------
------------------------------
300.65	fp
301.23	goo
301.37	fii
301.52	fi
302.05	go
10001	foo
------------------------------
75.58	flor
76.1	flour
76.56	ghot
100.4	flout
100.52	flit
101.34	flot
------------------------------
75.58	flor
76.1	flour
76.56	ghot
100.4	flout
100.52	flit
101.34	flot
------------------------------
------------------------------
150.65	gui
301.01	foo
301.03	gi
301.39	fu
10001.4	fii
10001.5	fi
------------------------------
300.65	fp
301.23	goo
301.37	fii
301.44	fio
302.05	go
10001	foo
------------------------------
101.38	gir
150.94	fut
151.1	firr
151.58	git
151.88	fir
301.61	fit
------------------------------
------------------------------
150.58	dss
300.83	sd
301.44	da
10000.6	saa
10000.7	ssa
10001.6	sa
------------------------------
101.45	shi
151.54	sadhi
151.61	sahi
151.63	saji
151.86	sadji
300.07	sashi
------------------------------
101.45	shi
151.54	sadhi
151.61	sahi
151.63	saji
151.86	sadji
300.07	sashi
------------------------------
75.55	shim
75.83	shun
76.44	shib
101.01	shin
101.48	sajon
151.55	sahin
------------------------------
51.03	skiing
51.35	shung
51.4	shund
75.87	dashing
76.39	saskind
------------------------------
51.03	skiing
51.35	shung
51.4	shund
75.87	dashing
76.39	saskind
------------------------------
------------------------------
300.59	sdk
300.65	ssh
300.67	ssl
300.74	sl
301.1	sh
10000.7	sk
------------------------------
150.58	sku
151.35	skip
151.4	sli
151.44	sky
151.45	shi
301.13	ski
------------------------------
100.83	shun
101.18	slim
150.76	djinn
150.95	skim
151.01	shin
301.55	skin
------------------------------
100.83	shun
101.18	slim
150.76	djinn
150.95	skim
151.01	shin
301.55	skin
------------------------------
------------------------------
150.73	mudd
150.96	nuff
151.17	mug
151.31	mud
151.4	nif
151.44	mig
------------------------------
60.68	muggy
61.17	mug
75.42	nought
75.61	muft
76.9	night
101.82	might
------------------------------
60.68	muggy
61.17	mug
75.42	nought
75.61	muft
76.9	night
101.82	might
------------------------------
------------------------------
300.59	sdk
300.67	ssl
300.74	sl
301.56	ak
301.66	aak
10000.7	sk
------------------------------
150.6	slp
151.4	sli
301.13	ski
301.32	ako
301.53	aako
301.64	slo
------------------------------
76.39	ajoy
76.61	akki
76.67	aji
100.58	sku
101.13	ski
101.49	aajki
------------------------------
75.73	adjoin
75.95	skim
76.06	akin
76.33	shoopin
101.33	aukoin
101.55	skin
------------------------------
75.73	adjoin
75.95	skim
76.06	akin
76.33	shoopin
101.33	aukoin
101.55	skin
------------------------------
51.15	skipping
60.61	soloing
61.03	skiing
61.06	skins
61.34	siking
61.35	sking
------------------------------
51.15	skipping
60.61	soloing
61.03	skiing
61.06	skins
61.34	siking
61.35	sking
------------------------------
51.15	skipping
60.61	soloing
61.03	skiing
61.06	skins
61.34	siking
61.35	sking
------------------------------
------------------------------
300.52	sst
300.53	ddr
301.4	dr
301.45	st
10000.6	ddt
10000.7	dt
------------------------------
100.68	sra
100.93	drs
150.81	detaa
150.84	dra
151.42	stra
301.46	drura
------------------------------
100.68	sra
100.93	drs
150.81	detaa
150.84	dra
151.42	stra
301.46	drura
------------------------------
60.52	sdrs
60.88	srs
75.93	drs
101.4	draas
101.42	straas
101.45	dras
------------------------------
50.88	srs
60.93	drs
76.38	dressd
76.4	draas
76.42	straas
76.45	dras
------------------------------
50.88	srs
60.93	drs
76.38	dressd
76.4	draas
76.42	straas
76.45	dras
------------------------------
50.88	srs
60.93	drs
76.38	dressd
76.4	draas
76.42	straas
76.45	dras
------------------------------
50.88	srs
60.93	drs
76.38	dressd
76.4	draas
76.42	straas
76.45	dras
------------------------------
50.88	srs
60.93	drs
76.38	dressd
76.4	draas
76.42	straas
76.45	dras
------------------------------
50.27	dray
50.61	dressy
50.81	detest
51.18	steady
51.32	draft
60.57	drafty
------------------------------
43.4671	dressy
44.0371	steady
44.2871	srusti
50.15	surasti
50.57	drafty
51.37	drusti
------------------------------
43.4671	dressy
44.0371	steady
44.2871	srusti
50.15	surasti
50.57	drafty
51.37	drusti
------------------------------
43.4671	dressy
44.0371	steady
44.2871	srusti
50.15	surasti
50.57	drafty
51.37	drusti
------------------------------
43.4671	dressy
44.0371	steady
44.2871	srusti
50.15	surasti
50.57	drafty
51.37	drusti
------------------------------
43.4671	dressy
44.0371	steady
44.2871	srusti
50.15	surasti
50.57	drafty
51.37	drusti
------------------------------
43.4671	dressy
44.0371	steady
44.2871	srusti
50.15	surasti
50.57	drafty
51.37	drusti
------------------------------
43.4671	dressy
44.0371	steady
44.2871	srusti
50.15	surasti
50.57	drafty
51.37	drusti
------------------------------
34.0933	dyestuff
38.54	drafted
38.96	draig
43.3871	dyadic
43.9471	static
61.01	drastic
------------------------------
34.0933	dyestuff
38.54	drafted
38.96	draig
43.3871	dyadic
43.9471	static
61.01	drastic
------------------------------
------------------------------
151.35	vy
300.97	vu
301.32	bii
301.86	bi
302.07	by
10001.6	bu
------------------------------
151.35	vy
300.97	vu
301.32	bii
301.86	bi
302.07	by
10001.6	bu
------------------------------
150.51	butty
152.07	by
300	butt
300.79	burt
301.76	buy
302.27	but
------------------------------
150.51	butty
152.07	by
300	butt
300.79	burt
301.76	buy
302.27	but
------------------------------
------------------------------
300.6	ott
301.47	ot
301.59	oot
10000.5	iit
10000.9	itt
10002.4	it
------------------------------
300.6	ott
301.47	ot
301.59	oot
10000.5	iit
10000.9	itt
10002.4	it
------------------------------
------------------------------
300.97	mms
301.26	ms
301.65	naa
301.8	na
10001.6	ma
10001.7	maa
------------------------------
150.66	msi
150.67	mst
151.48	masu
151.63	mast
151.87	may
300.77	massy
------------------------------
150.66	msi
150.67	mst
151.48	masu
151.63	mast
151.87	may
300.77	massy
------------------------------
------------------------------
151.32	yup
301.65	yi
301.76	yu
302.02	too
302.51	to
10001.5	yo
------------------------------
101.74	yupi
151.35	tiu
151.49	tippu
151.65	yi
151.72	tipu
302.41	you
------------------------------
101.74	yupi
151.35	tiu
151.49	tippu
151.65	yi
151.72	tipu
302.41	you
------------------------------
------------------------------
301.19	loo
301.38	llo
301.5	lu
301.53	lo
10001.5	lii
10001.5	li
------------------------------
301.19	loo
301.38	llo
301.5	lu
301.53	lo
10001.5	lii
10001.5	li
------------------------------
150.93	lug
151.16	lid
151.54	loud
151.8	lig
300.44	luff
301.54	lif
------------------------------
150.44	luff
150.48	lough
150.65	lugs
150.93	lug
151.54	lif
151.8	lig
------------------------------
75.5	lifer
75.53	luger
75.85	lugger
76.58	luft
100.44	luge
101.98	life
------------------------------
75.5	lifer
75.53	luger
75.85	lugger
76.58	luft
100.44	luge
101.98	life
------------------------------
------------------------------
300.62	bree
300.82	brr
301.48	nee
301.96	ne
10001.2	bee
10002.2	be
------------------------------
100.82	brr
151.38	berty
151.55	bet
300.79	bert
300.8	bret
300.97	brett
------------------------------
100.82	brr
151.38	berty
151.55	bet
300.79	bert
300.8	bret
300.97	brett
------------------------------
60.82	brr
75.62	bree
75.96	bre
76.18	brew
100.96	brewer
101.32	bere
------------------------------
50.82	brr
60.62	bree
60.96	bre
75.8	bret
75.97	brett
100.96	brewer
------------------------------
50.82	brr
60.62	bree
60.96	bre
75.8	bret
75.97	brett
100.96	brewer
------------------------------
------------------------------
150.85	webb
151.43	web
151.83	week
300.6	wg
301.07	wk
------------------------------
150.85	webb
151.43	web
151.83	week
300.6	wg
301.07	wk
------------------------------
100.27	weft
100.7	qty
150.48	weedy
150.6	wg
150.88	wry
301.99	why
------------------------------
100.27	weft
100.7	qty
150.48	weedy
150.6	wg
150.88	wry
301.99	why
------------------------------
------------------------------
300.96	moo
300.98	np
301.45	ni
301.51	nio
301.69	mo
10002.1	no
------------------------------
300.96	moo
300.98	np
301.45	ni
301.51	nio
301.69	mo
10002.1	no
------------------------------
150.72	mott
150.83	nir
151.44	nor
300.91	noir
301.3	nit
302.25	not
------------------------------
150.72	mott
150.83	nir
151.44	nor
300.91	noir
301.3	nit
302.25	not
------------------------------
------------------------------
150.89	yt
151.09	yee
151.78	ye
300.77	tt
301.16	tee
301.82	te
------------------------------
100.77	tt
101.65	tu
150.67	tty
151.43	tey
151.56	tru
301.89	try
------------------------------
100.77	tt
101.65	tu
150.67	tty
151.43	tey
151.56	tru
301.89	try
------------------------------
------------------------------
300.6	ott
301.47	ot
301.59	oot
10000.5	iit
10000.9	itt
10002.4	it
------------------------------
300.6	ott
301.47	ot
301.59	oot
10000.5	iit
10000.9	itt
10002.4	it
------------------------------
------------------------------
300.98	np
301.19	nu
301.33	boo
301.45	ni
301.73	bo
10002.1	no
------------------------------
300.98	np
301.19	nu
301.33	boo
301.45	ni
301.73	bo
10002.1	no
------------------------------
150.83	nir
151.44	nor
151.45	bout
300.91	noir
301.3	nit
302.25	not
------------------------------
------------------------------
150.89	yt
151.09	yee
151.78	ye
300.77	tt
301.16	tee
301.82	te
------------------------------
150.89	yt
151.09	yee
151.78	ye
300.77	tt
301.16	tee
301.82	te
------------------------------
151.33	yti
151.7	ti
151.85	tii
301.38	tetti
301.56	teti
301.69	tri
------------------------------
151.33	yti
151.7	ti
151.85	tii
301.38	tetti
301.56	teti
301.69	tri
------------------------------
76.64	tyon
101.09	tun
101.27	tin
101.5	tunn
101.7	tuun
151.47	trin
------------------------------
76.64	tyon
101.09	tun
101.27	tin
101.5	tunn
101.7	tuun
151.47	trin
------------------------------
75.63	tung
75.84	ting
76.05	tying
101.63	tring
101.85	trying
150.24	truing
------------------------------
75.63	tung
75.84	ting
76.05	tying
101.63	tring
101.85	trying
150.24	truing
------------------------------
------------------------------
301.46	yo
301.7	ti
301.77	tyo
301.85	tii
10002	too
10002.5	to
------------------------------
301.46	yo
301.7	ti
301.77	tyo
301.85	tii
10002	too
10002.5	to
------------------------------
------------------------------
300	ass
300.64	asd
300.83	sd
10000.9	aad
10001.4	ad
10001.7	add
------------------------------
150.48	afv
150.55	sdc
150.57	adc
150.6	asb
300.08	asav
300.91	adv
------------------------------
100.72	ssn
150	sb
150.51	asn
150.66	assn
150.91	adv
300.6	asb
------------------------------
75	sbi
75.64	svp
101.38	asavi
101.39	saavo
101.4	abo
101.6	sabo
------------------------------
75	sbi
75.64	svp
101.38	asavi
101.39	saavo
101.4	abo
101.6	sabo
------------------------------
75	sbi
75.64	svp
101.38	asavi
101.39	saavo
101.4	abo
101.6	sabo
------------------------------
42.9371	sanjiv
43.4771	schiff
44.6671	sachiv
50.69	aviv
51.45	senic
75.63	asdic
------------------------------
42.9371	sanjiv
43.4771	schiff
44.6671	sachiv
50.69	aviv
51.45	senic
75.63	asdic
------------------------------
38.33	anova
38.63	shiva
38.87	anics
43.7571	avoids
44.1771	aviva
44.2071	sankisa
------------------------------
30.68	schist
34.1333	adviser
34.6633	anicat
34.8933	abhisar
34.9233	avigat
------------------------------
30.57	advisee
31.14	advise
31.33	anicat
34.1333	adviser
34.5133	advocate
34.8933	abhisar
------------------------------
28.0727	adviser
28.8327	abhisar
30.83	advocated
30.95	advocates
31.38	adhovastr
34.5133	advocate
------------------------------
28.0727	adviser
28.8327	abhisar
30.83	advocated
30.95	advocates
31.38	adhovastr
34.5133	advocate
------------------------------
------------------------------
151.68	ok
300.63	ppp
300.77	pj
300.81	pk
301.43	ool
301.5	ol
------------------------------
150.79	olla
151.03	pola
151.09	ola
151.49	pls
301.19	pkka
301.39	poka
------------------------------
100.62	pols
101.03	pola
101.04	pools
101.6	polls
151.19	pkka
151.49	pls
------------------------------
60.66	platy
60.78	plato
61.61	pilaati
76.12	padti
76.32	pasti
76.47	plasi
------------------------------
38.68	playoff
43.6571	postfix
44.1871	postig
50.7	phatic
51.48	pattic
76.44	plastic
------------------------------
38.68	playoff
43.6571	postfix
44.1871	postig
50.7	phatic
51.48	pattic
76.44	plastic
------------------------------
------------------------------
300.52	sst
300.79	sty
301.45	st
301.51	ay
301.63	su
10000.6	sy
------------------------------
300.52	sst
300.79	sty
301.45	st
301.51	ay
301.63	su
10000.6	sy
------------------------------
151.52	sutt
151.67	sut
151.78	suut
300.6	sy
301.17	sur
301.91	str
------------------------------
151.52	sutt
151.67	sut
151.78	suut
300.6	sy
301.17	sur
301.91	str
------------------------------
75.6	surd
76.34	stresh
76.55	syed
101.1	surf
101.64	sirf
101.82	stuff
------------------------------
75	aayege
75.5	surfs
75.91	surfer
100.54	serge
100.99	surge
101.4	sirfre
------------------------------
75	aayege
75.5	surfs
75.91	surfer
100.54	serge
100.99	surge
101.4	sirfre
------------------------------
50.99	surge
60.62	stuffer
60.91	surfer
61.4	sirfre
61.43	surgery
61.61	street
------------------------------
50.99	surge
60.62	stuffer
60.91	surfer
61.4	sirfre
61.43	surgery
61.61	street
------------------------------
44.2371	sury
50.57	surrey
60.43	sergey
60.91	surfer
61.6	sutreey
76.43	surgery
------------------------------
------------------------------
301.46	yo
301.7	ti
301.77	tyo
301.85	tii
10002	too
10002.5	to
------------------------------
301.46	yo
301.7	ti
301.77	tyo
301.85	tii
10002	too
10002.5	to
------------------------------
301.46	yo
301.7	ti
301.77	tyo
301.85	tii
10002	too
10002.5	to
------------------------------
------------------------------
150.74	ny
151.45	ni
301.19	nu
301.67	mi
302.34	my
10001.6	mu
------------------------------
150.74	ny
151.45	ni
301.19	nu
301.67	mi
302.34	my
10001.6	mu
------------------------------
150.74	ny
151.45	ni
301.19	nu
301.67	mi
302.34	my
10001.6	mu
------------------------------
150.63	mux
150.83	muzz
150.99	nyc
151.17	mug
151.24	mic
------------------------------
75.83	muck
75.97	mitch
76.03	mich
76.55	mugdh
76.61	mudh
102.03	much
------------------------------
75.83	muck
75.97	mitch
76.03	mich
76.55	mugdh
76.61	mudh
102.03	much
------------------------------
------------------------------
300.92	aad
301.39	ad
301.66	add
10000	ass
10001.1	aas
10002.2	as
------------------------------
------------------------------
151.32	yup
301.65	yi
301.76	yu
302.02	too
302.51	to
10001.5	yo
------------------------------
151.32	yup
301.65	yi
301.76	yu
302.02	too
302.51	to
10001.5	yo
------------------------------
76.35	tyi
76.4	tiy
101.35	tiu
101.65	yi
101.74	yupi
152.41	you
------------------------------
76.35	tyi
76.4	tiy
101.35	tiu
101.65	yi
101.74	yupi
152.41	you
------------------------------
------------------------------
76.22	rho
101.21	thu
101.5	thuki
101.65	tho
151.35	thii
151.99	thi
------------------------------
100.62	thon
101.32	thunn
101.34	rhin
101.84	thim
151.35	thin
151.42	thiin
------------------------------
50.74	rhomb
60.95	thong
61.27	thumb
76.13	thigh
76.55	tinh
76.96	thing
------------------------------
50.74	rhomb
60.95	thong
61.27	thumb
76.13	thigh
76.55	tinh
76.96	thing
------------------------------
50.74	rhomb
60.95	thong
61.27	thumb
76.13	thigh
76.55	tinh
76.96	thing
------------------------------
50.74	rhomb
60.95	thong
61.27	thumb
76.13	thigh
76.55	tinh
76.96	thing
------------------------------
51.46	thonki
61.35	thin
61.42	thiin
61.46	thoonk
61.59	thonk
77.08	think
------------------------------
51.46	thonki
61.35	thin
61.42	thiin
61.46	thoonk
61.59	thonk
77.08	think
------------------------------
------------------------------
300.6	ott
301.47	ot
301.59	oot
10000.5	iit
10000.9	itt
10002.4	it
------------------------------
300.6	ott
301.47	ot
301.59	oot
10000.5	iit
10000.9	itt
10002.4	it
------------------------------
------------------------------
300.5	cd
300.63	ccs
300.72	csa
300.77	css
10000.6	cca
10000.6	caa
------------------------------
100.51	csb
100.53	csv
100.55	cdn
101.25	cam
101.28	cab
152.15	can
------------------------------
100.51	csb
100.53	csv
100.55	cdn
101.25	cam
101.28	cab
152.15	can
------------------------------
------------------------------
100.6	vfw
300.59	bds
300.62	bree
300.96	bre
301.25	bee
302.25	be
------------------------------
100.6	vfw
300.59	bds
300.62	bree
300.96	bre
301.25	bee
302.25	be
------------------------------
------------------------------
300	sb
300.6	asb
300.88	av
301.17	ann
10001.5	aab
10001.8	ab
------------------------------
150.99	abki
151.33	abjo
151.37	aabhi
151.59	abbhi
151.85	abhi
301.41	avji
------------------------------
150.99	abki
151.33	abjo
151.37	aabhi
151.59	abbhi
151.85	abhi
301.41	avji
------------------------------
100.99	abki
101.37	aabhi
101.53	anju
101.59	abbhi
101.85	abhi
151.41	avji
------------------------------
76.03	avid
76.47	aabid
100.84	avis
100.9	avoids
101.33	abis
101.35	abyus
------------------------------
76.03	avid
76.47	aabid
100.84	avis
100.9	avoids
101.33	abis
101.35	abyus
------------------------------
51.56	abhisar
60.96	abuser
75.66	abjure
75.9	avoids
75.94	abide
76.45	abuse
------------------------------
50.67	abides
50.92	abuses
60.79	abided
60.94	abusers
61.2	avoided
61.26	abused
------------------------------
50.67	abides
50.92	abuses
60.79	abided
60.94	abusers
61.2	avoided
61.26	abused
------------------------------
------------------------------
300.72	ssn
301.35	sn
10001.2	ann
10001.4	aann
10001.8	aan
10002.1	an
------------------------------
151.11	abs
151.4	ans
151.42	aanf
301.46	abd
301.49	aand
302.47	and
------------------------------
151.11	abs
151.4	ans
151.42	aanf
301.46	abd
301.49	aand
302.47	and
------------------------------
------------------------------
300.52	tss
300.7	tsa
300.84	ts
301.41	tra
301.78	raa
10001.7	ta
------------------------------
100.84	tsk
150.12	taj
151.28	task
151.34	trask
151.45	trash
151.65	taash
------------------------------
75.5	rashke
76.33	taahe
76.34	taje
76.6	taaje
76.68	tahe
101.38	tashe
------------------------------
37.57	raajeev
38.44	rajeev
44.3671	tahen
51.35	tajeeb
61.72	tahjeeb
------------------------------
43.5871	raheen
43.7971	rahen
44.2071	tajeeb
44.4871	raahen
51.51	tahen
51.72	tahjeeb
------------------------------
------------------------------
301.05	roo
301.7	ti
301.77	tyo
301.85	tii
10002	too
10002.5	to
------------------------------
301.05	roo
301.7	ti
301.77	tyo
301.85	tii
10002	too
10002.5	to
------------------------------
------------------------------
300.67	fd
300.96	fsa
301.48	ga
301.5	gaa
10000.7	ffa
10001	fa
------------------------------
300.76	fay
300.89	gat
301.45	gaat
301.66	fast
10001.5	fatt
10001.6	fat
------------------------------
300.76	fay
300.89	gat
301.45	gaat
301.66	fast
10001.5	fatt
10001.6	fat
------------------------------
------------------------------
300.97	mms
301.26	ms
301.65	naa
301.8	na
10001.6	ma
10001.7	maa
------------------------------
150.53	masan
151	msn
151.44	mann
151.45	masaan
151.49	maan
151.92	man
------------------------------
150.53	masan
151	msn
151.44	mann
151.45	masaan
151.49	maan
151.92	man
------------------------------
75.07	manu
75.5	mannu
76.02	nanny
76.48	maanu
100.93	manny
101.91	many
------------------------------
75.07	manu
75.5	mannu
76.02	nanny
76.48	maanu
100.93	manny
101.91	many
------------------------------
------------------------------
151.09	tun
151.5	tunn
151.7	tuun
301.09	trim
301.36	tim
301.88	tum
------------------------------
61.34	tuned
75.52	tuners
75.59	tines
76.05	time's
76.17	tunes
76.82	times
------------------------------
61.34	tuned
75.52	tuners
75.59	tines
76.05	time's
76.17	tunes
76.82	times
------------------------------
------------------------------
101.62	bhitr
151.35	bhiyu
151.38	bhur
151.48	bhit
151.68	bhu
301.57	bhut
------------------------------
------------------------------
151.41	ob
300.82	icc
301.41	ibb
301.55	ic
301.59	ib
301.69	ov
------------------------------
151.41	ob
300.82	icc
301.41	ibb
301.55	ic
301.59	ib
301.69	ov
------------------------------
100.58	ocr
151.33	ove
151.41	ibe
151.87	once
301.48	ive
301.59	ice
------------------------------
100.58	ocr
151.33	ove
151.41	ibe
151.87	once
301.48	ive
301.59	ice
------------------------------
------------------------------
300.67	ssl
300.74	sl
301.52	asl
10001.7	aal
10001.7	al
10002.2	all
------------------------------
150.57	sls
151.4	skla
151.46	asks
151.67	allaa
300.77	alls
301.69	aks
------------------------------
75.92	aldi
76.32	alsaai
76.49	alsi
100.75	aldo
101.4	aakado
101.97	also
------------------------------
75.92	aldi
76.32	alsaai
76.49	alsi
100.75	aldo
101.4	aakado
101.97	also
------------------------------
------------------------------
300.5	ssr
301.28	dee
301.32	dde
301.69	de
10002	see
10002.1	se
------------------------------
150.54	srm
151.39	swen
151.68	seem
300.83	sewn
301.71	sen
301.8	seen
------------------------------
150.54	srm
151.39	swen
151.68	seem
300.83	sewn
301.71	sen
301.8	seen
------------------------------
------------------------------
300.6	ott
301.47	ot
301.59	oot
10000.5	iit
10000.9	itt
10002.4	it
------------------------------
300.6	ott
301.47	ot
301.59	oot
10000.5	iit
10000.9	itt
10002.4	it
------------------------------
------------------------------
151.68	oon
300.85	om
301.18	inn
301.33	oom
302.39	in
10001.5	im
------------------------------
151.68	oon
300.85	om
301.18	inn
301.33	oom
302.39	in
10001.5	im
------------------------------
101.41	ono
151.32	ino
151.45	omi
300.64	imo
301.32	imi
10001.2	imp
------------------------------
101.41	ono
151.32	ino
151.45	omi
300.64	imo
301.32	imi
10001.2	imp
------------------------------
75.82	impute
76.21	input
76.33	ilit
76.52	inpe
100.43	imput
101.16	imply
------------------------------
60.76	imperil
61.46	olto
61.51	ompuri
76.46	inlogo
76.58	ikloti
------------------------------
44.2271	illiyon
50.66	impolitic
50.7	illogic
51.32	inputon
51.41	inlogon
76.04	improv
------------------------------
34.0933	optics
35.0333	office
38.09	inopportune
38.32	impinge
50.59	impotence
51.38	improve
------------------------------
34.0933	optics
35.0333	office
38.09	inopportune
38.32	impinge
50.59	impotence
51.38	improve
------------------------------
------------------------------
300.96	ppt
301.12	pt
301.5	por
301.63	poor
10000	pr
10001.1	ppr
------------------------------
300	pr
300.95	pw
301.08	ppr
301.55	pre
10001.5	pee
10001.8	pe
------------------------------
100.89	pri
151.03	preeti
151.22	prep
151.44	pro
301.37	preri
301.45	pero
------------------------------
100.89	pri
151.03	preeti
151.22	prep
151.44	pro
301.37	preri
301.45	pero
------------------------------
101.44	pro
150.69	perp
151.1	prop
151.22	prep
151.37	preri
151.45	pero
------------------------------
76.44	pro
100.82	peril
101.1	prop
101.12	petrol
151.32	pretol
151.49	perol
------------------------------
60.6	oriole
60.86	petiole
61.41	oroke
75.27	prole
76.45	powerple
102.14	people
------------------------------
60.6	oriole
60.86	petiole
61.41	oroke
75.27	prole
76.45	powerple
102.14	people
------------------------------
43.1271	prole
43.5971	petioles
43.8071	orioles
50.8	peopled
61.31	peoples
61.36	people's
------------------------------
43.1271	prole
43.5971	petioles
43.8071	orioles
50.8	peopled
61.31	peoples
61.36	people's
------------------------------
------------------------------
301.19	loo
301.5	lu
301.51	loi
301.53	lo
10001.5	lii
10001.5	li
------------------------------
301.19	loo
301.5	lu
301.51	loi
301.53	lo
10001.5	lii
10001.5	li
------------------------------
150.82	lob
151.01	lib
151.47	kiv
300.72	loin
301.36	lov
301.63	liv
------------------------------
150.82	lob
151.01	lib
151.47	kiv
300.72	loin
301.36	lov
301.63	liv
------------------------------
100.1	love
100.79	libre
100.95	louvre
101.04	lobe
101.4	livse
101.86	live
------------------------------
75.1	love
76.26	lover
76.4	livse
76.86	live
100.79	libre
100.95	louvre
------------------------------
75.66	lobes
75.82	louvers
76.21	lovers
76.52	loves
100.61	livres
101.63	lives
------------------------------
75.66	lobes
75.82	louvers
76.21	lovers
76.52	loves
100.61	livres
101.63	lives
------------------------------
------------------------------
300.72	ssn
301.35	sn
10001.2	ann
10001.4	aann
10001.8	aan
10002.1	an
------------------------------
151.11	abs
151.4	ans
151.42	aanf
301.46	abd
301.49	aand
302.47	and
------------------------------
151.11	abs
151.4	ans
151.42	aanf
301.46	abd
301.49	aand
302.47	and
------------------------------
------------------------------
300.5	ssr
301.16	aae
301.45	st
301.51	ae
10002	see
10002.1	se
------------------------------
151.01	swell
151.33	seek
151.36	assel
151.58	sek
300.81	seel
301.57	sell
------------------------------
60.96	adolf
61.57	aarekh
76.5	seekh
100.53	serif
100.83	selloff
101.62	self
------------------------------
60.96	adolf
61.57	aarekh
76.5	seekh
100.53	serif
100.83	selloff
101.62	self
------------------------------
------------------------------
300.57	ccp
300.6	cci
300.61	cpp
300.64	cio
10000.9	coo
10001.5	co
------------------------------
300.57	ccp
300.6	cci
300.61	cpp
300.64	cio
10000.9	coo
10001.5	co
------------------------------
101.32	colb
150.66	cohn
151.02	coon
151.21	coin
151.24	con
151.48	cook
------------------------------
101.32	colb
150.66	cohn
151.02	coon
151.21	coin
151.24	con
151.48	cook
------------------------------
101.32	colb
150.66	cohn
151.02	coon
151.21	coin
151.24	con
151.48	cook
------------------------------
60.56	xing
75.35	coking
75.53	cooing
75.81	cong
76.44	cooking
76.81	cond
------------------------------
60.56	xing
75.35	coking
75.53	cooing
75.81	cong
76.44	cooking
76.81	cond
------------------------------
43.6671	colby
43.9071	condo
44.0271	cinco
50.23	congo
50.52	condi
51.5	convo
------------------------------
43.6671	colby
43.9071	condo
44.0271	cinco
50.23	congo
50.52	condi
51.5	convo
------------------------------
43.6671	colby
43.9071	condo
44.0271	cinco
50.23	congo
50.52	condi
51.5	convo
------------------------------
38.02	concuss
38.08	colchis
38.26	condos
43.7571	convos
50.59	config
51.39	cobid
------------------------------
38.69	confuse
38.92	configar
43.6171	coincide
43.6571	confided
43.6971	confides
50.78	confide
------------------------------
28.0527	confab
30.69	condign
31.03	conform
31.38	congrej
34.6333	concern
34.9033	confirm
------------------------------
28.0527	confab
30.69	condign
31.03	conform
31.38	congrej
34.6333	concern
34.9033	confirm
------------------------------
26.33	constnz
27.7727	convex
27.8627	config
28.6127	congrez
28.7127	cooking
28.7327	colberg
------------------------------
34.6733	confident
34.7533	conference
34.7633	congence
34.8233	confrence
38.66	coincidence
44.2371	confidence
------------------------------
34.6733	confident
34.7533	conference
34.7633	congence
34.8233	confrence
38.66	coincidence
44.2371	confidence
------------------------------
------------------------------
300.67	oof
300.93	ig
301.99	off
302.42	of
10001.5	iff
10002.2	if
------------------------------
300.67	oof
300.93	ig
301.99	off
302.42	of
10001.5	iff
10002.2	if
------------------------------
------------------------------
151.32	yup
301.65	yi
301.76	yu
302.02	too
302.51	to
10001.5	yo
------------------------------
151.55	ypi
151.65	yi
301.35	yot
301.46	yo
301.76	yu
10002.4	you
------------------------------
151.55	ypi
151.65	yi
301.35	yot
301.46	yo
301.76	yu
10002.4	you
------------------------------
------------------------------
300.5	ssr
300.78	assr
301.37	asr
302.21	at
10001.6	aar
10001.7	ar
------------------------------
300.5	ssr
300.78	assr
301.37	asr
302.21	at
10001.6	aar
10001.7	ar
------------------------------
151.51	ae
301.27	arre
301.31	aree
301.51	sere
301.57	aer
302.25	are
------------------------------
151.51	ae
301.27	arre
301.31	aree
301.51	sere
301.57	aer
302.25	are
------------------------------
151.51	ae
301.27	arre
301.31	aree
301.51	sere
301.57	aer
302.25	are
------------------------------
------------------------------
150.82	icc
300.73	ox
301.41	ob
301.68	oon
302.28	on
10001.7	ov
------------------------------
150.82	icc
300.73	ox
301.41	ob
301.68	oon
302.28	on
10001.7	ov
------------------------------
150.58	ocr
151.35	oobe
151.48	ive
151.59	ice
301.33	ove
301.87	once
------------------------------
150.58	ocr
151.35	oobe
151.48	ive
151.59	ice
301.33	ove
301.87	once
------------------------------
100.53	icer
100.58	ocr
100.89	overt
101.33	ove
101.35	iver
151.98	over
------------------------------
100.53	icer
100.58	ocr
100.89	overt
101.33	ove
101.35	iver
151.98	over
------------------------------
75.58	ocr
76.33	ove
76.35	iver
76.87	once
101.39	overs
101.98	over
------------------------------
75.58	ocr
76.33	ove
76.35	iver
76.87	once
101.39	overs
101.98	over
------------------------------
75.58	ocr
76.33	ove
76.35	iver
76.87	once
101.39	overs
101.98	over
------------------------------
51.48	ive
51.59	ice
61.33	ove
61.87	once
76.98	over
100.73	oversee
------------------------------
44.3371	ive
44.4471	ice
51.33	ove
51.87	once
61.98	over
75.73	oversee
------------------------------
50.75	ovary
60.81	overdo
61.39	odesi
61.41	iveri
61.49	overtek
76.37	overi
------------------------------
50.75	ovary
60.81	overdo
61.39	odesi
61.41	iveri
61.49	overtek
76.37	overi
------------------------------
38.68	obsession
50.74	overdub
51.4	odedin
51.43	oversij
51.57	overon
60.86	overrun
------------------------------
38.68	obsession
50.74	overdub
51.4	odedin
51.43	oversij
51.57	overon
60.86	overrun
------------------------------
34.5133	obsession
38.39	obsessing
44.4271	overon
50.67	overseeing
50.74	overdub
50.86	overrun
------------------------------
38.27	obeying
38.39	obsessing
38.45	offsetting
50.64	overhung
50.66	overdoing
50.67	overseeing
------------------------------
38.27	obeying
38.39	obsessing
38.45	offsetting
50.64	overhung
50.66	overdoing
50.67	overseeing
------------------------------
38.27	obeying
38.39	obsessing
38.45	offsetting
50.64	overhung
50.66	overdoing
50.67	overseeing
------------------------------
38.27	obeying
38.39	obsessing
38.45	offsetting
50.64	overhung
50.66	overdoing
50.67	overseeing
------------------------------
34.1033	obeying
34.2233	obsessing
34.2833	offsetting
43.4971	overhung
43.5171	overdoing
43.5271	overseeing
------------------------------
34.1033	obeying
34.2233	obsessing
34.2833	offsetting
43.4971	overhung
43.5171	overdoing
43.5271	overseeing
------------------------------
30.77	obeying
30.89	obsessing
38.16	overdoing
38.17	overseeing
43.7971	oversight
51.23	overweight
------------------------------
30.77	obeying
30.89	obsessing
38.16	overdoing
38.17	overseeing
43.7971	oversight
51.23	overweight
------------------------------
------------------------------
150.67	wei
300.96	wwi
301.14	wii
301.18	wwii
10001.2	woo
10002	wo
------------------------------
150.67	wei
300.96	wwi
301.14	wii
301.18	wwii
10001.2	woo
10002	wo
------------------------------
300.67	wei
300.96	wwi
301.14	wii
301.18	wwii
301.22	woo
301.96	wo
------------------------------
300.67	wei
300.96	wwi
301.14	wii
301.18	wwii
301.22	woo
301.96	wo
------------------------------
150.96	wwi
151.14	wii
151.18	wwii
300.97	wot
301.22	woo
301.96	wo
------------------------------
150.55	witt
150.64	weepy
151.18	wwii
151.37	wit
300.97	wot
301.77	woh
------------------------------
150.55	witt
150.64	weepy
151.18	wwii
151.37	wit
300.97	wot
301.77	woh
------------------------------
150.55	witt
150.64	weepy
151.18	wwii
151.37	wit
300.97	wot
301.77	woh
------------------------------
150.55	witt
150.7	weir
151.37	wit
300.91	woe
300.97	wot
10000.7	wwor
------------------------------
150.55	witt
150.7	weir
151.37	wit
300.91	woe
300.97	wot
10000.7	wwor
------------------------------
60.54	quoth
75.39	wroth
77.27	with
101.11	worm
151.69	worth
151.99	work
------------------------------
60.54	quoth
75.39	wroth
77.27	with
101.11	worm
151.69	worth
151.99	work
------------------------------
------------------------------
300.78	oy
300.96	ppt
301.12	pt
10000.6	ott
10001.5	ot
10001.6	oot
------------------------------
300.78	oy
300.96	ppt
301.12	pt
10000.6	ott
10001.5	ot
10001.6	oot
------------------------------
------------------------------
150.65	tyg
151.76	yu
300	tb
300.67	tty
301.65	tu
------------------------------
100.66	tugs
100.7	yuga
101.01	thugs
151.16	thaa
151.32	thya
152.05	tha
------------------------------
100.66	tugs
100.7	yuga
101.01	thugs
151.16	thaa
151.32	thya
152.05	tha
------------------------------
60.5	thar
61.44	thaar
61.6	thaade
76.51	thaat
77.37	that
------------------------------
60.5	thar
61.44	thaar
61.6	thaade
76.51	thaat
77.37	that
------------------------------
------------------------------
301.4	unn
301.48	im
301.55	un
301.74	uun
10001.2	inn
10002.4	in
------------------------------
301.4	unn
301.48	im
301.55	un
301.74	uun
10001.2	inn
10002.4	in
------------------------------
------------------------------
301.44	utt
301.49	ut
301.5	ir
10000.5	iit
10000.9	itt
10002.4	it
------------------------------
301.44	utt
301.49	ut
301.5	ir
10000.5	iit
10000.9	itt
10002.4	it
------------------------------
101.44	utta
101.56	utaa
151.34	iya
151.42	ita
151.64	itta
301.97	its
------------------------------
101.44	utta
101.56	utaa
151.34	iya
151.42	ita
151.64	itta
301.97	its
------------------------------
76	usee
76.5	ussse
76.67	usse
77.01	use
101.97	its
------------------------------
50.73	utaaro
51.02	utaro
51.38	udek
51.41	udrek
61.38	isek
61.52	udel
------------------------------
50.73	utaaro
51.02	utaro
51.38	udek
51.41	udrek
61.38	isek
61.52	udel
------------------------------
43.5771	urls
51.43	items
51.53	utsarg
61.08	ideals
61.45	itef
101.56	itself
------------------------------
43.5771	urls
51.43	items
51.53	utsarg
61.08	ideals
61.45	itef
101.56	itself
------------------------------
------------------------------
300.67	wei
301.22	woo
301.96	wo
10001	wwi
10001.1	wii
10001.2	wwii
------------------------------
300.67	wei
301.22	woo
301.96	wo
10001	wwi
10001.1	wii
10001.2	wwii
------------------------------
101.58	wyk
151.05	wool
151.35	wol
300.57	weill
301.34	whil
302.1	will
------------------------------
101.58	wyk
151.05	wool
151.35	wol
300.57	weill
301.34	whil
302.1	will
------------------------------
------------------------------
150.27	hgt
150.98	gt
151.04	gee
151.23	ge
302.17	he
10001.3	hr
------------------------------
150.27	hgt
150.98	gt
151.04	gee
151.23	ge
302.17	he
10001.3	hr
------------------------------
151.12	gel
151.44	hek
151.45	hej
300.91	hel
301.06	heel
301.08	hell
------------------------------
151.12	gel
151.44	hek
151.45	hej
300.91	hel
301.06	heel
301.08	hell
------------------------------
101.12	gel
150.91	hel
151.06	heel
151.08	hell
151.44	hek
------------------------------
101.12	gel
150.91	hel
151.06	heel
151.08	hell
151.44	hek
------------------------------
------------------------------
300.23	bsa
300.54	bbs
301.75	vaa
302.04	va
10001.2	baa
10001.7	ba
------------------------------
151.09	val
151.36	vall
301	bball
301.45	bal
301.53	ball
------------------------------
150.05	baka
150.1	bala
151.32	bakka
151.41	bakaa
151.59	balla
------------------------------
150.05	baka
150.1	bala
151.32	bakka
151.41	bakaa
151.59	balla
------------------------------
150.05	baka
150.1	bala
151.32	bakka
151.41	bakaa
151.59	balla
------------------------------
76.37	valan
76.4	vaalan
100.27	balsam
101.32	balaan
101.4	balan
101.6	baalan
------------------------------
76.37	valan
76.4	vaalan
100.27	balsam
101.32	balaan
101.4	balan
101.6	baalan
------------------------------
51.36	vadlaav
51.6	baldev
51.65	bahaav
61.48	badlaab
61.57	ballab
61.87	badlaav
------------------------------
51.36	vadlaav
51.6	baldev
51.65	bahaav
61.48	badlaab
61.57	ballab
61.87	badlaav
------------------------------
43.2571	valance
43.2771	balancer
43.4271	valances
44.0171	balanced
50.98	balances
51.41	balance
------------------------------
43.2571	valance
43.2771	balancer
43.4271	valances
44.0171	balanced
50.98	balances
51.41	balance
------------------------------
43.2571	valance
43.2771	balancer
43.4271	valances
44.0171	balanced
50.98	balances
51.41	balance
------------------------------
------------------------------
300.87	hp
301.23	goo
302.03	hi
302.05	go
10001.4	hoo
10002	ho
------------------------------
300.87	hp
301.23	goo
302.03	hi
302.05	go
10001.4	hoo
10002	ho
------------------------------
300.55	hoyt
301.02	hoot
301.36	hout
301.74	hit
301.77	hot
10001.3	hoit
------------------------------
300.55	hoyt
301.02	hoot
301.36	hout
301.74	hit
301.77	hot
10001.3	hoit
------------------------------
151.36	hout
151.52	hote
151.62	hor
151.75	hour
151.77	hot
301.35	hoit
------------------------------
151.36	hout
151.52	hote
151.62	hor
151.75	hour
151.77	hot
301.35	hoit
------------------------------
76.47	hiren
76.56	gotten
100.14	hiten
100.59	hoten
101.16	horn
101.56	hotel
------------------------------
50.64	gorki
61.24	humko
61.32	gilrmo
61.37	gitko
61.39	gounko
76.34	hitko
------------------------------
50.64	gorki
61.24	humko
61.32	gilrmo
61.37	gitko
61.39	gounko
76.34	hitko
------------------------------
50.14	hiten
50.59	hoten
51.16	horn
51.37	gutkon
60.72	hornbook
61.74	hothon
------------------------------
34.7033	glutmine
34.9333	gormint
38.09	horne
38.12	hohenlohe
38.5	hotline
51.01	hormone
------------------------------
34.7033	glutmine
34.9333	gormint
38.09	horne
38.12	hohenlohe
38.5	hotline
51.01	hormone
------------------------------
33.9933	hotlines
34.1633	hotness
38.05	horniness
38.51	hormone
38.95	hormons
44.0071	hormones
------------------------------
33.9933	hotlines
34.1633	hotness
38.05	horniness
38.51	hormone
38.95	hormons
44.0071	hormones
------------------------------
------------------------------
150.65	tyg
150.73	rj
151.06	ru
300	tb
300.67	tty
301.65	tu
------------------------------
150.65	tyg
150.73	rj
151.06	ru
300	tb
300.67	tty
301.65	tu
------------------------------
100.5	tfs
150.66	tugs
150.71	tufa
151.76	rha
301.16	thaa
302.05	tha
------------------------------
100.5	tfs
150.66	tugs
150.71	tufa
151.76	rha
301.16	thaa
302.05	tha
------------------------------
75.5	thar
76.44	thaar
76.6	thaade
101.51	thaat
102.37	that
------------------------------
75.5	thar
76.44	thaar
76.6	thaade
101.51	thaat
102.37	that
------------------------------
------------------------------
150.91	vee
152.01	ve
300	bt
301.25	bee
302.25	be
10000.8	brr
------------------------------
150.91	vee
152.01	ve
300	bt
301.25	bee
302.25	be
10000.8	brr
------------------------------
75.5	vdu
101.32	bhru
101.42	bheti
150.78	bedi
151.5	beri
151.51	bheri
------------------------------
75.5	vdu
101.32	bhru
101.42	bheti
150.78	bedi
151.5	beri
151.51	bheri
------------------------------
76.35	bhetun
76.4	bhetin
76.61	bhrim
101.5	brin
101.7	bhrun
150.54	bruin
------------------------------
76.35	bhetun
76.4	bhetin
76.61	bhrim
101.5	brin
101.7	bhrun
150.54	bruin
------------------------------
75.6	veering
76.34	vering
100.52	bering
100.82	bedding
101.41	bhring
101.68	bring
------------------------------
75.6	veering
76.34	vering
100.52	bering
100.82	bedding
101.41	bhring
101.68	bring
------------------------------
------------------------------
151.32	yup
301.65	yi
301.76	yu
302.02	too
302.51	to
10001.5	yo
------------------------------
151.55	ypi
151.65	yi
301.35	yot
301.46	yo
301.76	yu
10002.4	you
------------------------------
151.55	ypi
151.65	yi
301.35	yot
301.46	yo
301.76	yu
10002.4	you
------------------------------
------------------------------
300.51	sso
301.47	soo
301.5	dio
302.22	so
10001.2	doo
10002.2	do
------------------------------
300.51	sso
301.47	soo
301.5	dio
302.22	so
10001.2	doo
10002.2	do
------------------------------
101.51	sie
101.56	siie
151.13	doe
151.32	diie
151.4	sioe
151.7	die
------------------------------
101.51	sie
101.56	siie
151.13	doe
151.32	diie
151.4	sioe
151.7	die
------------------------------
76.56	siie
100.92	sow
101.32	diie
101.4	sioe
101.7	die
150.95	dow
------------------------------
75.78	diem
75.93	siren
76.39	sipiiem
76.51	sipiem
76.58	soen
101.42	dien
------------------------------
75.78	diem
75.93	siren
76.39	sipiiem
76.51	sipiem
76.58	soen
101.42	dien
------------------------------
------------------------------
150.6	abm
151.17	ann
151.55	aab
151.79	ahm
151.85	ab
301.51	abn
------------------------------
60.6	sbs
76.11	abs
76.41	agne
101.46	abd
101.49	aand
102.47	and
------------------------------
60.6	sbs
76.11	abs
76.41	agne
101.46	abd
101.49	aand
102.47	and
------------------------------
------------------------------
150.65	tyg
150.73	rj
300	tb
300.67	tty
------------------------------
300.82	rhee
301.16	tee
301.62	rhe
301.71	three
10001.2	thee
10002.5	the
------------------------------
300.82	rhee
301.16	tee
301.62	rhe
301.71	three
10001.2	thee
10002.5	the
------------------------------
100.4	therm
151.35	thev
152.09	them
300.75	treen
301.68	tren
302.05	then
------------------------------
100.4	therm
151.35	thev
152.09	them
300.75	treen
301.68	tren
302.05	then
------------------------------
------------------------------
151.32	yup
301.65	yi
301.76	yu
302.02	too
302.51	to
10001.5	yo
------------------------------
151.32	yup
301.65	yi
301.76	yu
302.02	too
302.51	to
10001.5	yo
------------------------------
151.37	toy
151.55	ypi
151.65	yi
301.46	yo
301.76	yu
10002.4	you
------------------------------
100.63	yuk
100.68	tull
101.46	til
101.57	till
150.53	yul
150.69	toil
------------------------------
100.63	yuk
100.68	tull
101.46	til
101.57	till
150.53	yul
150.69	toil
------------------------------
------------------------------
151.32	yup
301.65	yi
301.76	yu
302.02	too
302.51	to
10001.5	yo
------------------------------
151.32	yup
301.65	yi
301.76	yu
302.02	too
302.51	to
10001.5	yo
------------------------------
151.32	yup
301.65	yi
301.76	yu
302.02	too
302.51	to
10001.5	yo
------------------------------
151.32	yup
301.65	yi
301.76	yu
302.02	too
302.51	to
10001.5	yo
------------------------------
151.37	toy
151.55	ypi
151.65	yi
301.46	yo
301.76	yu
10002.4	you
------------------------------
151.37	toy
151.55	ypi
151.65	yi
301.46	yo
301.76	yu
10002.4	you
------------------------------
151.37	toy
151.55	ypi
151.65	yi
301.46	yo
301.76	yu
10002.4	you
------------------------------
61.74	tik
76.46	til
76.57	till
100.05	tijil
100.53	yul
100.69	toil
------------------------------
61.74	tik
76.46	til
76.57	till
100.05	tijil
100.53	yul
100.69	toil
------------------------------
------------------------------
150.63	fdr
300.93	fr
301.04	gee
301.23	ge
10000.9	fe
10001.3	fee
------------------------------
300.93	fr
301.04	gee
301.23	ge
10000.9	fe
10001.3	fee
------------------------------
100	fek
150.64	ferrell
151.54	fell
151.6	fel
151.69	ferj
151.98	feel
------------------------------
100	fek
150.64	ferrell
151.54	fell
151.6	fel
151.69	ferj
151.98	feel
------------------------------
------------------------------
300.92	gu
301.01	foo
301.03	gi
301.45	gio
10001.2	goo
10002	go
------------------------------
300.92	gu
301.01	foo
301.03	gi
301.45	gio
10001.2	goo
10002	go
------------------------------
101.33	fidd
101.56	fid
151.24	god
151.35	gidd
151.73	goud
152.1	good
------------------------------
101.33	fidd
101.56	fid
151.24	god
151.35	gidd
151.73	goud
152.1	good
------------------------------
101.33	fidd
101.56	fid
151.24	god
151.35	gidd
151.73	goud
152.1	good
------------------------------
------------------------------
300.72	ssn
301.35	sn
10001.2	ann
10001.4	aann
10001.8	aan
10002.1	an
------------------------------
300.72	ssn
301.35	sn
10001.2	ann
10001.4	aann
10001.8	aan
10002.1	an
------------------------------
301.1	ang
301.4	ans
301.42	aanf
301.46	abd
10001.5	aand
10002.5	and
------------------------------
301.1	ang
301.4	ans
301.42	aanf
301.46	abd
10001.5	aand
10002.5	and
------------------------------
------------------------------
301.45	lii
301.47	li
301.51	koo
10001.2	loo
10001.4	llo
10001.5	lo
------------------------------
300	lol
300.84	loll
301.45	looj
301.53	loj
10001.1	lok
10001.9	look
------------------------------
300	lol
300.84	loll
301.45	looj
301.53	loj
10001.1	lok
10001.9	look
------------------------------
------------------------------
150.93	ghi
301.01	foo
301.03	gi
301.45	gio
10001.2	goo
10002	go
------------------------------
150.93	ghi
301.01	foo
301.03	gi
301.45	gio
10001.2	goo
10002	go
------------------------------
150.7	gos
151	goof
301.24	god
301.35	gidd
301.73	goud
302.1	good
------------------------------
150.7	gos
151	goof
301.24	god
301.35	gidd
301.73	goud
302.1	good
------------------------------
------------------------------
301.05	roo
301.7	ti
301.77	tyo
301.85	tii
10002	too
10002.5	to
------------------------------
301.05	roo
301.7	ti
301.77	tyo
301.85	tii
10002	too
10002.5	to
------------------------------
151.34	tosa
151.37	tids
151.58	roda
300.64	tilda
301.65	toda
301.76	todaa
------------------------------
60.15	rosy
61.34	tisu
75.63	toddy
75.82	tody
75.96	tipsy
101.89	today
------------------------------
60.15	rosy
61.34	tisu
75.63	toddy
75.82	tody
75.96	tipsy
101.89	today
------------------------------
------------------------------
150.65	tyg
150.73	rj
151.06	ru
300.67	tty
300.77	tt
301.65	tu
------------------------------
101.58	tujhe
151.15	thee
151.32	tuuhe
151.71	three
152.55	the
------------------------------
101.58	tujhe
151.15	thee
151.32	tuuhe
151.71	three
152.55	the
------------------------------
60.76	rugger
61.32	tujge
76.4	ther
76.71	three
77.12	there
------------------------------
51.32	tujge
61.4	ther
61.46	threw
61.71	three
77.12	there
------------------------------
51.32	tujge
61.4	ther
61.46	threw
61.71	three
77.12	there
------------------------------
------------------------------
300.58	ius
300.74	oos
300.94	ids
301.66	os
10001.3	iss
10002.4	is
------------------------------
300.58	ius
300.74	oos
300.94	ids
301.66	os
10001.3	iss
10002.4	is
------------------------------
------------------------------
301.19	loo
301.5	lu
301.51	loi
301.53	lo
10001.5	lii
10001.5	li
------------------------------
301.19	loo
301.5	lu
301.51	loi
301.53	lo
10001.5	lii
10001.5	li
------------------------------
151.38	loy
300.7	lott
300.72	lout
301.13	loot
301.3	lit
301.94	lot
------------------------------
61.48	kiul
61.5	kiyo
75.49	loto
75.99	lotto
76.07	liyo
76.62	looto
------------------------------
38.75	luke
43.4971	lyle
43.5971	kirtle
44.2671	kottle
51.32	loylty
51.9	little
------------------------------
38.75	luke
43.4971	lyle
43.5971	kirtle
44.2671	kottle
51.32	loylty
51.9	little
------------------------------
------------------------------
150.97	qr
300.66	ws
301.01	www
301.54	qe
10001.1	wee
10002.2	we
------------------------------
------------------------------
300.5	cd
300.63	ccs
300.72	csa
300.77	css
10000.6	cca
10000.6	caa
------------------------------
150.51	csb
150.53	csv
150.55	cdn
151.25	cam
151.28	cab
302.15	can
------------------------------
75.64	cavy
76.21	cave
100.37	canny
100.84	cabby
101.07	cane
150.97	cant
------------------------------
75.64	cavy
76.21	cave
100.37	canny
100.84	cabby
101.07	cane
150.97	cant
------------------------------
------------------------------
300.57	ccp
300.6	cci
300.61	cpp
300.64	cio
10000.9	coo
10001.5	co
------------------------------
300.57	ccp
300.6	cci
300.61	cpp
300.64	cio
10000.9	coo
10001.5	co
------------------------------
150.77	cobb
150.87	cob
151.21	coin
151.69	com
301.02	coon
301.24	con
------------------------------
100.63	cobby
101.14	cone
101.32	comt
101.54	count
150.88	cont
151.5	chont
------------------------------
76.54	count
100.61	cibber
100.72	conner
100.88	cont
101.5	chont
------------------------------
76.43	cobre
100.5	conte
100.61	cibber
100.72	conner
100.88	cont
------------------------------
44.2071	chuntti
44.2471	chhinti
44.3471	chinti
44.4071	counti
50.87	confetti
------------------------------
44.2071	chuntti
44.2471	chhinti
44.3471	chinti
44.4071	counti
50.87	confetti
------------------------------
39.05	counti
43.5371	countertop
44.2171	contin
44.2471	contili
51.41	cobertin
61.64	control
------------------------------
39.05	counti
43.5371	countertop
44.2171	contin
44.2471	contili
51.41	cobertin
61.64	control
------------------------------
------------------------------
301.05	roo
301.7	ti
301.77	tyo
301.85	tii
10002	too
10002.5	to
------------------------------
301.05	roo
301.7	ti
301.77	tyo
301.85	tii
10002	too
10002.5	to
------------------------------
------------------------------
300.54	bbs
300.82	brr
300.91	vee
302.01	ve
10001.2	bee
10002.2	be
------------------------------
300.54	bbs
300.82	brr
300.91	vee
302.01	ve
10001.2	bee
10002.2	be
------------------------------
------------------------------
300.87	hp
301.23	goo
302.03	hi
302.05	go
10001.4	hoo
10002	ho
------------------------------
300.87	hp
301.23	goo
302.03	hi
302.05	go
10001.4	hoo
10002	ho
------------------------------
100.57	holm
101.35	hijb
151.31	hon
151.57	huon
151.6	hoon
151.7	hoin
------------------------------
100.57	holm
101.35	hijb
151.31	hon
151.57	huon
151.6	hoon
151.7	hoin
------------------------------
101.07	hilne
101.33	honve
101.36	hinne
101.37	hoone
101.5	hobe
101.68	hone
------------------------------
101.07	hilne
101.33	honve
101.36	hinne
101.37	hoone
101.5	hobe
101.68	hone
------------------------------
61.04	holmes
75.27	honers
75.39	hones
75.68	hines
75.87	hobbes
100.59	hombres
------------------------------
61.04	holmes
75.27	honers
75.39	hones
75.68	hines
75.87	hobbes
100.59	hombres
------------------------------
43.4471	gillnet
43.8271	gilbert
43.9271	hilne
50.79	hilbert
51.63	honese
61.55	honest
------------------------------
43.4471	gillnet
43.8271	gilbert
43.9271	hilne
50.79	hilbert
51.63	honese
61.55	honest
------------------------------
------------------------------
151.32	yup
301.65	yi
301.76	yu
302.02	too
302.51	to
10001.5	yo
------------------------------
100	tit
101.35	tyot
101.62	yor
102.22	your
150.5	yippie
151.35	yot
------------------------------
100	tit
101.35	tyot
101.62	yor
102.22	your
150.5	yippie
151.35	yot
------------------------------
75	tit
76.6	tite
76.77	tir
101.35	yot
101.62	yor
102.22	your
------------------------------
75	tit
76.6	tite
76.77	tir
101.35	yot
101.62	yor
102.22	your
------------------------------
------------------------------
300	pr
300.95	pw
301.08	ppr
301.55	pre
10001.5	pee
10001.8	pe
------------------------------
300	pr
300.95	pw
301.08	ppr
301.55	pre
10001.5	pee
10001.8	pe
------------------------------
300	pr
300.95	pw
301.08	ppr
301.55	pre
10001.5	pee
10001.8	pe
------------------------------
150	pr
151.08	ppr
300.53	pret
301	poorer
301.03	preet
301.55	pre
------------------------------
150	pr
151.08	ppr
300.53	pret
301	poorer
301.03	preet
301.55	pre
------------------------------
100.05	poorv
100.61	ptc
100.62	pyrex
150.57	pref
150.67	prc
150.78	perf
------------------------------
100.05	poorv
100.61	ptc
100.62	pyrex
150.57	pref
150.67	prc
150.78	perf
------------------------------
100.05	poorv
100.61	ptc
100.62	pyrex
150.57	pref
150.67	prc
150.78	perf
------------------------------
100.05	poorv
100.61	ptc
100.62	pyrex
150.57	pref
150.67	prc
150.78	perf
------------------------------
76.02	peeve
76.59	pede
76.63	peedhee
100.56	perse
101.55	porce
151.05	pierce
------------------------------
76.02	peeve
76.59	pede
76.63	peedhee
100.56	perse
101.55	porce
151.05	pierce
------------------------------
38.94	orvel
44.5671	pedo
50.53	presell
50.69	perp
50.86	pedro
51.22	prep
------------------------------
38.94	orvel
44.5671	pedo
50.53	presell
50.69	perp
50.86	pedro
51.22	prep
------------------------------
34.6733	pretor
34.7833	prot
38.22	perot
50.68	prescript
50.71	percept
50.94	precept
------------------------------
28.6527	piroyi
28.7327	prito
30.55	proto
30.86	pedro
31.49	peedito
38.82	preferiti
------------------------------
27.8227	proto
28.1327	pedro
28.6527	piroyi
28.6627	piroti
28.7627	peedito
38.82	preferiti
------------------------------
25.66	proton
26.33	orderon
30.48	perdition
34.4033	proportion
38.72	prescription
38.74	perception
------------------------------
25.66	proton
26.33	orderon
30.48	perdition
34.4033	proportion
38.72	prescription
38.74	perception
------------------------------
------------------------------
300.6	ppg
300.67	oof
301.23	ooh
301.5	ohh
301.85	oh
301.99	off
------------------------------
301.38	ood
301.46	odd
301.6	od
10000.7	oof
10002	off
10002.4	of
------------------------------
301.38	ood
301.46	odd
301.6	od
10000.7	oof
10002	off
10002.4	of
------------------------------
------------------------------
151.32	yup
301.65	yi
301.76	yu
302.02	too
302.51	to
10001.5	yo
------------------------------
151.32	yup
301.65	yi
301.76	yu
302.02	too
302.51	to
10001.5	yo
------------------------------
101.74	yupi
151.35	tiu
151.55	ypi
151.65	yi
151.76	yu
302.41	you
------------------------------
151.35	yot
151.37	toy
151.4	tiy
151.55	ypi
151.65	yi
152.41	you
------------------------------
151.35	yot
151.37	toy
151.4	tiy
151.55	ypi
151.65	yi
152.41	you
------------------------------
150.69	torr
151.35	yot
151.46	tour
151.6	tor
301.62	yor
302.22	your
------------------------------
150.69	torr
151.35	yot
151.46	tour
151.6	tor
301.62	yor
302.22	your
------------------------------
150.69	torr
151.35	yot
151.46	tour
151.6	tor
301.62	yor
302.22	your
------------------------------
100.57	touts
100.95	totes
100.96	tots
101.09	tours
101.41	yord
151.5	yours
------------------------------
100.57	touts
100.95	totes
100.96	tots
101.09	tours
101.41	yord
151.5	yours
------------------------------
100.57	touts
100.95	totes
100.96	tots
101.09	tours
101.41	yord
151.5	yours
------------------------------
60.57	touts
76.41	yord
76.5	yours
76.63	yuiede
101.32	yorse
------------------------------
60.57	touts
76.41	yord
76.5	yours
76.63	yuiede
101.32	yorse
------------------------------
38.93	tork
44.3171	york
44.4071	tiel
51.37	ypiel
51.45	tisdel
60.49	yodel
------------------------------
38.93	tork
44.3171	york
44.4071	tiel
51.37	ypiel
51.45	tisdel
60.49	yodel
------------------------------
38.84	torwald
38.85	tirasth
43.8871	yield
44.1971	yoseph
76.4	yoraself
76.75	yourself
------------------------------
38.84	torwald
38.85	tirasth
43.8871	yield
44.1971	yoseph
76.4	yoraself
76.75	yourself
------------------------------
------------------------------
300.58	ius
300.74	oos
300.94	ids
301.66	os
10001.3	iss
10002.4	is
------------------------------
300.58	ius
300.74	oos
300.94	ids
301.66	os
10001.3	iss
10002.4	is
------------------------------
------------------------------
151.32	bii
300.98	np
301.33	boo
301.45	ni
301.73	bo
10002.1	no
------------------------------
300.98	np
301.19	nu
301.33	boo
301.45	ni
301.73	bo
10002.1	no
------------------------------
100.61	blot
101.44	blott
150.91	noir
151.3	nit
151.51	nokout
152.25	not
------------------------------
100.61	blot
101.44	blott
150.91	noir
151.3	nit
151.51	nokout
152.25	not
------------------------------
------------------------------
150.65	tyg
150.73	rj
300	tb
300.67	tty
------------------------------
150.47	tyree
150.82	rhee
151.62	rhe
301.15	thee
301.71	three
302.55	the
------------------------------
150.47	tyree
150.82	rhee
151.62	rhe
301.15	thee
301.71	three
302.55	the
------------------------------
------------------------------
150.58	dss
300.83	sd
301.44	da
10000.6	saa
10000.7	ssa
10001.6	sa
------------------------------
100.72	ssn
101.35	sn
151.44	sm
301.43	sam
301.46	saasn
301.69	samm
------------------------------
100.72	ssn
101.35	sn
151.44	sm
301.43	sam
301.46	saasn
301.69	samm
------------------------------
75.7	sneer
75.9	sme
100.5	saner
101.18	sane
101.37	saante
101.96	same
------------------------------
------------------------------
300.78	oy
300.89	oor
302.25	or
10000.6	ott
10001.5	ot
10001.6	oot
------------------------------
300.78	oy
300.89	oor
302.25	or
10000.6	ott
10001.5	ot
10001.6	oot
------------------------------
101.36	org
101.47	iyu
150.78	oy
151.32	otu
301.43	ooth
301.53	oth
------------------------------
151.06	oyee
151.32	oote
151.44	ithe
151.45	oye
301.32	outhe
301.38	othe
------------------------------
76.44	ithe
100.71	outgrew
101.32	outhe
101.38	othe
101.41	oothte
152.01	other
------------------------------
75.55	outbreed
76.32	outhe
76.38	othe
100.27	outers
100.93	otters
151.72	others
------------------------------
75.55	outbreed
76.32	outhe
76.38	othe
100.27	outers
100.93	otters
151.72	others
------------------------------
------------------------------
300.55	hss
300.66	hsa
301.6	jaa
301.67	ja
10001.6	ha
10001.8	haa
------------------------------
75.54	jsc
101.44	jaav
101.55	jav
151.39	hav
151.47	haav
151.53	hasn
------------------------------
60.15	jasveer
60.49	haver
61.61	jaave
75.74	heave
76.7	haaavee
77.28	have
------------------------------
60.15	jasveer
60.49	haver
61.61	jaave
75.74	heave
76.7	haaavee
77.28	have
------------------------------
